{
	"name": "morock",
	"creatureType": "dragon",
	"groups": [
		"predator"
	],
	"entityClass": "com.lycanitesmobs.core.entity.creature.EntityMorock",
	"modelClass": "com.lycanitesmobs.client.model.creature.ModelMorock",
	"loadDefault": true,
	"enabled": true,
	"spawning": {
		"enabled": true,
		"spawners": ["sky"],
		"disableSubspecies": false,
		"dimensionIds": [-1, 1],
		"dimensionListType": "blacklist",
		"ignoreBiome": false,
		"biomes": ["plains", "savanna", "-snowy"],
		"spawnWeight": 1,
		"dungeonWeight": 0,
		"spawnAreaLimit": 1,
		"spawnGroupMin": 1,
		"spawnGroupMax": 1,
		"spawnsInLight": false,
		"spawnsInDark": true,
		"worldDayMin": -1,
		"despawnNatural": true,
		"despawnForced": false
	},
	"width": 2.8,
	"height": 1.8,
	"experience": 20,
	"health": 120,
	"defense": 2,
	"armor": 0,
	"speed": 42,
	"damage": 2,
	"attackSpeed": 1,
	"rangedSpeed": 1,
	"effectDuration": 5,
	"effectAmplifier": 0,
	"pierce": 2,
	"sight": 24,
	"knockbackResistance": 0.75,
	"eggBackColor": "#222211",
	"eggForeColor": "#554444",
	"subspecies": [
		{
			"index": 1,
			"name": "lux",
			"type": "uncommon"
		},
		{
			"index": 2,
			"name": "verdant",
			"type": "uncommon"
		}
	],
	"element": "order",
	"peaceful": false,
	"summonable": false,
	"tameable": true,
	"mountable": true,
	"summonCost": 8,
	"dungeonLevel": 1,
	"drops": [
		{
			"item": "minecraft:bone",
			"minAmount": 3,
			"maxAmount": 6,
			"chance": 1
		},
		{
			"item": "minecraft:prismarine_shard",
			"minAmount": 6,
			"maxAmount": 12,
			"chance": 1
		},
		{
			"item": "minecraft:prismarine_crystals",
			"minAmount": 3,
			"maxAmount": 6,
			"chance": 0.75
		},
		{
			"item": "minecraft:emerald",
			"minAmount": 1,
			"maxAmount": 3,
			"chance": 0.25
		},
		{
			"item": "minecraft:diamond",
			"minAmount": 1,
			"maxAmount": 1,
			"chance": 0.1
		}
	],
	"sizeScale": 1,
	"hitboxScale": 1
}