{
	"name": "tremor",
	"creatureType": "elemental",
	"groups": [
		"monster"
	],
	"entityClass": "com.lycanitesmobs.core.entity.creature.EntityTremor",
	"modelClass": "com.lycanitesmobs.client.model.creature.ModelTremor",
	"loadDefault": true,
	"enabled": true,
	"spawning": {
		"enabled": true,
		"spawners": [],
		"disableSubspecies": false,
		"dimensionIds": [],
		"dimensionListType": "blacklist",
		"ignoreBiome": false,
		"biomes": [],
		"spawnWeight": 8,
		"dungeonWeight": 200,
		"spawnAreaLimit": 3,
		"spawnGroupMin": 1,
		"spawnGroupMax": 3,
		"spawnsInLight": false,
		"spawnsInDark": true,
		"worldDayMin": -1,
		"despawnNatural": true,
		"despawnForced": false
	},
	"width": 0.8,
	"height": 1.6,
	"experience": 15,
	"health": 20,
	"defense": 1,
	"armor": 0,
	"speed": 30,
	"damage": 2,
	"attackSpeed": 1,
	"rangedSpeed": 1,
	"effectDuration": 5,
	"effectAmplifier": 0,
	"pierce": 1,
	"sight": 24,
	"knockbackResistance": 1,
	"eggBackColor": "#a1b5bf",
	"eggForeColor": "#232d2e",
	"subspecies": [
		{
			"index": 1,
			"name": "russet",
			"type": "uncommon"
		},
		{
			"index": 2,
			"name": "verdant",
			"type": "uncommon"
		}
	],
	"element": "quake",
	"peaceful": false,
	"summonable": false,
	"tameable": false,
	"mountable": false,
	"summonCost": 2,
	"dungeonLevel": 1,
	"drops": [
		{
			"item": "minecraft:gunpowder",
			"minAmount": 4,
			"maxAmount": 8,
			"chance": 1
		},
		{
			"item": "minecraft:firework_charge",
			"minAmount": 1,
			"maxAmount": 1,
			"chance": 0.25
		},
		{
			"item": "minecraft:blaze_powder",
			"minAmount": 1,
			"maxAmount": 4,
			"chance": 1
		},
		{
			"item": "minecraft:blaze_rod",
			"minAmount": 1,
			"maxAmount": 2,
			"chance": 0.75
		}
	],
	"sizeScale": 1,
	"hitboxScale": 1
}