{
	"name": "ooze",
	"type": "spawner",
	"enabled": true,
	"loadDefault": true,
	"mobCountMin": 8,
	"ignoreDimensions": true,
	"ignoreBiomes": true,
	"ignoreLightLevel": true,
	"conditions": [],
	"triggers": [
		{
			"type": "world",
			"chance": 0.25,
			"tickRate": 400
		}
	],
	"locations": [
		{
			"type": "block",
			"rangeMin": [16, 0, 16],
			"rangeMax": [32, 32, 32],
			"sorting": "random",
			"blocks": [
				"lycanitesmobs:ooze"
			],
			"blockCost": 8,
			"listType": "whitelist"
		}
	]
}