{
	"name": "shadowgames_landspawner",
	"type": "spawner",
	"enabled": true,
	"loadDefault": true,
	"mobCountMin": 10,
	"ignoreDimensions": true,
	"ignoreBiomes": true,
	"ignoreLightLevel": true,
	"ignoreGroupLimit": true,
	"ignoreForgeCanSpawnEvent": true,
	"forceNoDespawn": true,
	"eventName": "shadowgames",
	"conditions": [],
	"triggers": [
		{
			"type": "player",
			"chance": 1,
			"tickRate": 800
		}
	],
	"locations": [
		{
			"type": "random",
			"rangeMin": [24, 0, 24],
			"rangeMax": [32, 48, 32],
			"sorting": "random",
			"limit": 32,
			"solidGround": true
		}
	],
	"mobSpawns": [
		{
			"mobId": "lycanitesmobs:darkling",
			"weight": 8
		},
		{
			"mobId": "lycanitesmobs:shade",
			"weight": 2
		}
	]
}