{
	"name": "cooked_ika_meat",
	"loadDefault": true,
	"group": "items",
	"maxStackSize": 64,
	"food": {
		"hunger": 3,
		"saturation": 0.3,
		"alwaysEdible": true,
		"fast": false,
		"meat": true,
		"effects": [
			{
				"effectId": "minecraft:swiftswimming",
				"duration": 20,
				"amplifier": 1,
				"chance": 1.0
			}
		]
	}
}