{
	"name": "tropical_curry",
	"loadDefault": true,
	"group": "items",
	"maxStackSize": 16,
	"food": {
		"hunger": 10,
		"saturation": 0.8,
		"alwaysEdible": true,
		"fast": false,
		"meat": true,
		"effects": [
			{
				"effectId": "minecraft:jump_boost",
				"duration": 60,
				"amplifier": 2,
				"chance": 1.0
			},
			{
				"effectId": "lycanitesmobs:fallresist",
				"duration": 60,
				"amplifier": 0,
				"chance": 1.0
			}
		]
	}
}